"100-10"	"New York"	"2013"	"Jan"	"Actual"	10	100	1000	10000	100000			
"100-10"	"New York"	"2013"	"Feb"	"Actual"	11	101	1001	10001	100001			
"100-10"	"New York"	"2013"	"Mar"	"Actual"	12	102	1002	10002	100002			
"100-10"	"New York"	"2013"	"Apr"	"Actual"	13	103	1003	10003	100003			
"100-10"	"New York"	"2013"	"May"	"Actual"	14	104	1004	10004	100004			
"100-10"	"New York"	"2013"	"Jun"	"Actual"	15	105	1005	10005	100005			
"100-10"	"New York"	"2013"	"Jul"	"Actual"	16	106	1006	10006	100006			
"100-10"	"New York"	"2013"	"Aug"	"Actual"	17	107	1007	10007	100007			
"100-10"	"New York"	"2013"	"Sep"	"Actual"	18	108	1008	10008	100008			
"100-10"	"New York"	"2013"	"Oct"	"Actual"	19	109	1009	10009	100009			
"100-10"	"New York"	"2013"	"Nov"	"Actual"	20	110	1010	10010	100010			
"100-10"	"New York"	"2013"	"Dec"	"Actual"	21	111	1011	10011	100011			
"400-10"	"California"	"2013"	"Jan"	"Actual"	1							
"400-10"	"California"	"2013"	"Feb"	"Actual"		11						
"400-10"	"California"	"2013"	"Mar"	"Actual"			1012					
"400-10"	"California"	"2013"	"Apr"	"Actual"				10013				
"400-10"	"California"	"2013"	"May"	"Actual"					100014			
"300-10"	"Texas"	"2013"	"Dec"	"Actual"	12	13	14	15	16			
"300-10"	"Ohio"	"2013"	"Jan"	"Actual"	1	2	3	4	5			
